The Data Science R Bootcamp Assignment
…
mydata %>% group_by(hour_in_day) %>% summarise(Count = n())

## # A tibble: 24 x 2
##    hour_in_day Count
##    <chr>       <int>
##  1 00             51
##  2 01             44
##  3 02             31
##  4 03             20
##  5 04             26
##  6 05             29
##  7 06             65
##  8 07            133
##  9 08            143
## 10 09            139
## # … with 14 more rows
…
